<svg width="13" height="13" viewBox="0 0 13 13" fill="none" xmlns="http://www.w3.org/2000/svg">
<path d="M7.9318 6.5L12.7923 1.63927C12.926 1.50547 12.9998 1.32696 13 1.13661C13 0.946151 12.9262 0.767427 12.7923 0.633834L12.3664 0.208005C12.2325 0.0738825 12.054 0.000427246 11.8634 0.000427246C11.6732 0.000427246 11.4946 0.0738825 11.3607 0.208005L6.50021 5.06842L1.63948 0.208005C1.50578 0.0738825 1.32716 0.000427246 1.13671 0.000427246C0.946463 0.000427246 0.767846 0.0738825 0.634146 0.208005L0.208 0.633834C-0.0693333 0.911167 -0.0693333 1.36226 0.208 1.63927L5.06863 6.5L0.208 11.3605C0.0741951 11.4945 0.000528455 11.6731 0.000528455 11.8634C0.000528455 12.0538 0.0741951 12.2323 0.208 12.3662L0.634041 12.792C0.76774 12.926 0.946463 12.9996 1.1366 12.9996C1.32706 12.9996 1.50567 12.926 1.63937 12.792L6.50011 7.93148L11.3606 12.792C11.4945 12.926 11.673 12.9996 11.8633 12.9996H11.8635C12.0539 12.9996 12.2324 12.926 12.3663 12.792L12.7922 12.3662C12.9259 12.2324 12.9997 12.0538 12.9997 11.8634C12.9997 11.6731 12.9259 11.4945 12.7922 11.3606L7.9318 6.5Z" fill="#D9202A"/>
</svg>
