<svg width="88" height="88" viewBox="0 0 88 88" fill="none" xmlns="http://www.w3.org/2000/svg">
<g filter="url(#filter0_d)">
<circle cx="44" cy="40" r="24" fill="white"/>
</g>
<path d="M50.366 31.9355L49.4999 32.8013C51.7804 34.3839 53.277 37.0205 53.277 40.0005C53.277 42.9751 51.7857 45.6073 49.5125 47.1905L50.3785 48.0566C52.8653 46.2427 54.4853 43.3071 54.4853 40.0005C54.4853 36.6885 52.8601 33.7484 50.366 31.9355Z" fill="#40853C"/>
<path d="M51.9181 40.0001C51.9181 37.3942 50.5634 35.0986 48.5205 33.7803L47.6419 34.6589C49.4757 35.7347 50.7095 37.7255 50.7095 40.0001C50.7095 42.2695 49.482 44.2568 47.6566 45.3336L48.5338 46.2119C50.5694 44.8922 51.9181 42.6008 51.9181 40.0001Z" fill="#40853C"/>
<path d="M49.4037 40.0004C49.4037 38.083 48.2923 36.4197 46.6797 35.6211L45.7612 36.541C47.1795 37.0509 48.1962 38.4091 48.1962 40.0004C48.1962 41.5862 47.1875 42.9405 45.7779 43.4557L46.6951 44.3728C48.2993 43.571 49.4037 41.9129 49.4037 40.0004Z" fill="#40853C"/>
<path d="M46.6213 40.0009C46.6213 38.8157 45.5945 37.8556 44.3282 37.8556V30.0007C44.3282 29.7327 44.0958 29.5156 43.8092 29.5156C43.5233 29.5156 43.2909 29.7327 43.2909 30.0007V30.2443C42.9123 30.5516 37.1605 35.7414 37.1605 35.7414H34.7538C34.0694 35.7414 33.5148 36.2597 33.5148 36.9V43.1007C33.5148 43.7413 34.0694 44.2596 34.7538 44.2596H37.1608V44.2603C37.1608 44.2603 40.5269 46.8341 43.2912 49.7494V50.0003C43.2912 50.2684 43.5236 50.4861 43.8095 50.4861C44.0961 50.4861 44.3285 50.2684 44.3285 50.0003V42.1455C45.5948 42.1455 46.6213 41.185 46.6213 40.0009Z" fill="#40853C"/>
<defs>
<filter id="filter0_d" x="0" y="0" width="88" height="88" filterUnits="userSpaceOnUse" color-interpolation-filters="sRGB">
<feFlood flood-opacity="0" result="BackgroundImageFix"/>
<feColorMatrix in="SourceAlpha" type="matrix" values="0 0 0 0 0 0 0 0 0 0 0 0 0 0 0 0 0 0 127 0"/>
<feOffset dy="4"/>
<feGaussianBlur stdDeviation="10"/>
<feColorMatrix type="matrix" values="0 0 0 0 0 0 0 0 0 0 0 0 0 0 0 0 0 0 0.25 0"/>
<feBlend mode="normal" in2="BackgroundImageFix" result="effect1_dropShadow"/>
<feBlend mode="normal" in="SourceGraphic" in2="effect1_dropShadow" result="shape"/>
</filter>
</defs>
</svg>
