<svg width="43" height="43" viewBox="0 0 43 43" fill="none" xmlns="http://www.w3.org/2000/svg">
<circle cx="21.3425" cy="21.3425" r="19.8425" stroke="white" stroke-width="3"/>
<path d="M25.4623 13.1031C24.838 13.1031 24.2392 13.3511 23.7977 13.7926C23.3562 14.2341 23.1082 14.8329 23.1082 15.4573V20.1656C23.7325 20.1656 24.3313 20.4136 24.7728 20.8551C25.2143 21.2966 25.4623 21.8954 25.4623 22.5197V28.4052C25.4623 29.0295 25.2143 29.6283 24.7728 30.0698C24.3313 30.5113 23.7325 30.7593 23.1082 30.7593H16.0457C15.4213 30.7593 14.8225 30.5113 14.381 30.0698C13.9396 29.6283 13.6915 29.0295 13.6915 28.4052V22.5197C13.6915 21.8954 13.9396 21.2966 14.381 20.8551C14.8225 20.4136 15.4213 20.1656 16.0457 20.1656H21.9311V15.4573C21.9311 14.5207 22.3031 13.6225 22.9654 12.9603C23.6276 12.2981 24.5258 11.926 25.4623 11.926C26.3989 11.926 27.2971 12.2981 27.9593 12.9603C28.6215 13.6225 28.9936 14.5207 28.9936 15.4573V20.1656C28.9936 20.3217 28.9316 20.4714 28.8212 20.5817C28.7108 20.6921 28.5611 20.7541 28.405 20.7541C28.2489 20.7541 28.0992 20.6921 27.9889 20.5817C27.8785 20.4714 27.8165 20.3217 27.8165 20.1656V15.4573C27.8165 14.8329 27.5685 14.2341 27.127 13.7926C26.6855 13.3511 26.0867 13.1031 25.4623 13.1031ZM16.0457 21.3427C15.7335 21.3427 15.4341 21.4667 15.2134 21.6874C14.9926 21.9082 14.8686 22.2076 14.8686 22.5197V28.4052C14.8686 28.7173 14.9926 29.0167 15.2134 29.2375C15.4341 29.4582 15.7335 29.5822 16.0457 29.5822H23.1082C23.4204 29.5822 23.7197 29.4582 23.9405 29.2375C24.1612 29.0167 24.2853 28.7173 24.2853 28.4052V22.5197C24.2853 22.2076 24.1612 21.9082 23.9405 21.6874C23.7197 21.4667 23.4204 21.3427 23.1082 21.3427H16.0457Z" fill="white"/>
</svg>
