<svg width="24" height="23" viewBox="0 0 24 23" fill="none" xmlns="http://www.w3.org/2000/svg">
<path d="M12.79 5.98251C13.3423 5.98251 13.79 5.5348 13.79 4.98251C13.79 4.43023 13.3423 3.98251 12.79 3.98251C12.2378 3.98251 11.79 4.43023 11.79 4.98251C11.79 5.5348 12.2378 5.98251 12.79 5.98251Z" stroke="#40853C" stroke-width="2" stroke-linecap="round" stroke-linejoin="round"/>
<path d="M6.79004 21.9825L9.79004 17.9825" stroke="#40853C" stroke-width="2" stroke-linecap="round" stroke-linejoin="round"/>
<path d="M15.79 21.9825L13.79 17.9825L10.79 14.9825L11.79 8.98251" stroke="#40853C" stroke-width="2" stroke-linecap="round" stroke-linejoin="round"/>
<path d="M5.79004 12.9825L7.79004 9.98251L11.79 8.98251L14.79 11.9825L17.79 12.9825" stroke="#40853C" stroke-width="2" stroke-linecap="round" stroke-linejoin="round"/>
</svg>
