<svg width="16" height="20" viewBox="0 0 16 20" fill="none" xmlns="http://www.w3.org/2000/svg">
<path d="M3.59 3.40564C2.81 2.62564 2.81 1.35564 3.59 0.585635C4.37 -0.184365 5.64 -0.194365 6.42 0.585635C7.2 1.36564 7.2 2.63564 6.42 3.40564C5.62 4.19564 4.36 4.19564 3.59 3.40564ZM2 13.9956V5.99564C2 5.44564 1.55 4.99564 1 4.99564C0.45 4.99564 0 5.44564 0 5.99564V13.9956C0 16.7556 2.24 18.9956 5 18.9956H10C10.55 18.9956 11 18.5456 11 17.9956C11 17.4456 10.55 16.9956 10 16.9956H5C3.34 16.9956 2 15.6556 2 13.9956ZM15.28 17.3456L11.51 13.5756C11.14 13.2056 10.63 12.9956 10.1 12.9956H7.5V9.31563C8.59 10.2056 10.16 11.0156 11.7 11.3356C12.37 11.4756 13 10.9756 13 10.2956C13 9.76564 12.61 9.33564 12.08 9.24564C10.66 9.00564 9.2 8.23563 8.33 7.27564L6.93 5.72564C6.74 5.51564 6.5 5.34564 6.24 5.22564C5.95 5.08564 5.62 4.99564 5.28 4.99564H5.25C4.01 4.99564 3 6.00564 3 7.24564V12.9956C3 14.6556 4.34 15.9956 6 15.9956H11.07L13.85 18.7756C14.24 19.1656 14.89 19.1656 15.28 18.7756C15.68 18.3856 15.68 17.7456 15.28 17.3456Z" fill="#40853C"/>
</svg>
